{
  "required": true,
  "minVersion": "0.8",
  "package": "fr.creerio.elementalenchantments.mixins",
  "compatibilityLevel": "JAVA_17",
  "mixins": [
    "DarkAspect",
    "DarkCurse",
    "EarthCurse",
    "EarthCurseCrossbow",
    "ElecAspect",
    "ElecAspectCrossbow",
    "FireCurse",
    "FrostCurse",
    "FrostCurseOnBlock",
    "LightAspect",
    "WindCurse"
  ],
  "client": [
  ],
  "injectors": {
    "defaultRequire": 1
  }
}
