{
  "schemaVersion": 1,
  "id": "elementalenchantments",
  "version": "${version}",
  "name": "Elemental Enchantments",
  "description": "A mod adding elemental enchantments",
  "authors": [
    "creerio"
  ],
  "contact": {
    "sources": "https://gitlab.com/crepes-o-mods/elemental-enchantments",
    "issues": "https://gitlab.com/crepes-o-mods/elemental-enchantments/-/issues",
    "wiki": "https://gitlab.com/crepes-o-mods/elemental-enchantments/-/wikis"
  },
  "license": "GPL-3.0-or-later",
  "icon": "assets/elementalenchantments/icon.png",
  "environment": "*",
  "entrypoints": {
    "main": [
      "fr.creerio.elementalenchantments.ElementalEnchantments"
    ]
  },
  "mixins": [
    "elementalenchantments.mixins.json"
  ],
  "depends": {
    "fabricloader": ">=0.14.20",
    "minecraft": "<=1.20.1",
    "fabric-registry-sync-v0": "*",
    "midnightlib": ">=1.4.1"
  },
  "breaks": {
    "minecraft": "<1.20.0"
  }
}
